# Wavefront OBJ file written 2021-07-23T06:00:23
o cargo_edgeMesh

# points : 168
# lines  : 167

# <points count="168">
v -0.094675772 -0.04708733 0.040575389
v -0.094675772 0.04708733 0.040575389
v 0.2090084 -0.042708039 0.01488039
v -0.2098446 -0.0010712449 0.040575389
v -0.2096381 -0.0021419011 0.040575389
v -0.2099151 -3.1848951e-10 0.040575389
v -0.20983259 0.001159727 0.040575389
v -0.2092638 -0.0033157959 0.040575389
v -0.2095914 0.002318708 0.040575389
v -0.2087089 -0.0045578219 0.040575389
v -0.2091639 0.0035682011 0.040575389
v -0.207949 -0.005881493 0.040575389
v -0.20858151 0.0048018801 0.040575389
v -0.20695341 -0.0073022088 0.040575389
v -0.20774581 0.006193555 0.040575389
v -0.2056831 -0.0088389767 0.040575389
v -0.2066586 0.007680628 0.040575389
v -0.20198859 -0.01246755 0.040575389
v -0.19943 -0.01460496 0.040575389
v -0.19943 0.01460496 0.040575389
v -0.2015837 0.01282036 0.040575389
v -0.20408639 -0.01051783 0.040575389
v -0.2052836 0.0092803594 0.040575389
v -0.2035761 0.01101398 0.040575389
v -0.1827071 -0.02567002 0.040575389
v -0.1878382 -0.02261918 0.040575389
v -0.19521619 -0.01777132 0.040575389
v -0.19737969 -0.016192099 0.040575389
v -0.1762365 -0.029304979 0.040575389
v -0.19182751 -0.02008505 0.040575389
v -0.1762365 0.029304979 0.040575389
v -0.1805118 0.02692437 0.040575389
v -0.1844334 0.02466446 0.040575389
v -0.1890991 0.02183659 0.040575389
v -0.1930328 0.019281721 0.040575389
v -0.19636279 0.016945601 0.040575389
v -0.1388313 -0.044752989 0.040575389
v -0.1424966 -0.043849301 0.040575389
v -0.1461108 -0.042801641 0.040575389
v -0.1541333 -0.039968129 0.040575389
v -0.1584029 -0.038201451 0.040575389
v -0.1628855 -0.036174931 0.040575389
v -0.16764 -0.033854522 0.040575389
v -0.1720798 -0.031552538 0.040575389
v -0.1500432 -0.041496359 0.040575389
v -0.1388313 0.044752989 0.040575389
v -0.1419062 0.04400593 0.040575389
v -0.1449461 0.043155629 0.040575389
v -0.1486499 0.04197786 0.040575389
v -0.15252291 0.040589768 0.040575389
v -0.1565991 0.038968261 0.040575389
v -0.1609364 0.037076551 0.040575389
v -0.1656554 0.034842931 0.040575389
v -0.17087071 0.032190811 0.040575389
v -0.087458894 -0.043932281 0.023571851
v -0.088755399 -0.044060759 0.0244174
v -0.089886509 -0.044203699 0.02531057
v -0.090961777 -0.04437805 0.026353501
v -0.091872588 -0.044570021 0.027460139
v -0.093775377 -0.045274232 0.03129996
v -0.094165839 -0.0455667 0.03283361
v -0.094442859 -0.045902301 0.03456733
v -0.094609432 -0.046300039 0.036597379
v -0.094667479 -0.046691511 0.038579222
v -0.1046862 -0.047321539 0.040575389
v -0.1113293 -0.047361791 0.040575389
v -0.1171678 -0.04725473 0.040575389
v -0.1221308 -0.047018439 0.040575389
v -0.1265655 -0.0466648 0.040575389
v -0.092636719 -0.04478126 0.0286415
v -0.093267761 -0.045014571 0.029913761
v -0.1306259 -0.046199668 0.040575389
v -0.13439859 -0.045626551 0.040575389
v -0.13662221 -0.04521725 0.040575389
v -0.1007833 0.047245119 0.040575389
v -0.1068767 0.04734971 0.040575389
v -0.1130704 0.047346331 0.040575389
v -0.1184579 0.04720768 0.040575389
v -0.1233078 0.04693884 0.040575389
v -0.1277609 0.046542909 0.040575389
v -0.13137449 0.046097361 0.040575389
v -0.1351224 0.04549944 0.040575389
v -0.089886509 0.044203699 0.02531057
v -0.088755399 0.044060759 0.0244174
v -0.091872588 0.044570021 0.027460139
v -0.090961777 0.04437805 0.026353501
v -0.094609432 0.046300039 0.036597379
v -0.094442859 0.045902301 0.03456733
v -0.094667479 0.046691511 0.038579222
v -0.087458894 0.043932281 0.023571851
v -0.092636719 0.04478126 0.0286415
v -0.093267761 0.045014571 0.029913761
v -0.093775377 0.045274232 0.03129996
v -0.094165839 0.0455667 0.03283361
v -0.08581578 -0.043807231 0.022691069
v -0.051374499 -0.043301269 0.01598263
v -0.057055071 -0.043302711 0.016477151
v -0.071960479 -0.043378141 0.018553261
v -0.075736158 -0.043436419 0.01935374
v -0.067608491 -0.043337099 0.0177976
v -0.062637039 -0.043312769 0.017099479
v -0.081615999 -0.043596592 0.02099992
v -0.083970033 -0.043699909 0.021871001
v -0.078982592 -0.043511339 0.020187611
v -0.078982592 0.043511339 0.020187611
v -0.081615999 0.043596592 0.02099992
v -0.075736158 0.043436419 0.01935374
v -0.071960479 0.043378141 0.018553261
v -0.067608491 0.043337099 0.0177976
v -0.062637039 0.043312769 0.017099479
v -0.057055071 0.043302711 0.016477151
v -0.051374499 0.043301269 0.01598263
v -0.083970033 0.043699909 0.021871001
v -0.08581578 0.043807231 0.022691069
v -0.044459999 -0.043301269 0.01553444
v -0.037545498 -0.043301269 0.01522794
v -0.0080732265 -0.043301269 0.01488039
v -0.018623561 -0.043301269 0.01489634
v -0.029173899 -0.043301269 0.01500794
v -0.044459999 0.043301269 0.01553444
v -0.037545498 0.043301269 0.01522794
v -0.029173899 0.043301269 0.01500794
v -0.018623561 0.043301269 0.01489634
v -0.0080732265 0.043301269 0.01488039
v 0.03522804 -0.043301269 0.01488039
v 0.03522804 0.043301269 0.01488039
v 0.078529313 -0.043301269 0.01488039
v 0.078529313 0.043301269 0.01488039
v 0.1218306 -0.043301269 0.01488039
v 0.1218306 0.043301269 0.01488039
v 0.1651319 -0.043301269 0.01488039
v 0.1651319 0.043301269 0.01488039
v 0.1858924 -0.043288909 0.01488039
v 0.20131209 -0.0432024 0.01488039
v 0.20131209 0.0432024 0.01488039
v 0.1858924 0.043288909 0.01488039
v 0.20866179 -0.042879108 0.01488039
v 0.2079424 -0.042982079 0.01488039
v 0.2067145 -0.04306474 0.01488039
v 0.20446581 -0.043143719 0.01488039
v 0.2089321 -0.042775691 0.01488039
v 0.20882639 -0.042829871 0.01488039
v 0.2090677 -0.042639241 0.01488039
v 0.20912629 -0.042524841 0.01488039
v 0.2092306 -0.04204081 0.01488039
v 0.20936359 -0.040262111 0.01488039
v 0.2094878 -0.03519455 0.01488039
v 0.2095717 -0.02019237 0.01488039
v 0.20912629 0.042524841 0.01488039
v 0.2090677 0.042639241 0.01488039
v 0.2090084 0.042708039 0.01488039
v 0.2089321 0.042775691 0.01488039
v 0.20882639 0.042829871 0.01488039
v 0.2092306 0.04204081 0.01488039
v 0.20866179 0.042879108 0.01488039
v 0.20936359 0.040262111 0.01488039
v 0.2079424 0.042982079 0.01488039
v 0.2067145 0.04306474 0.01488039
v 0.2094878 0.03519455 0.01488039
v 0.20446581 0.043143719 0.01488039
v 0.2095837 -3.1849159e-10 0.01488039
v 0.2095717 0.02019237 0.01488039
v 0.2089289 0.0080213202 -0.007437448
v 0.20891561 0.0099283708 -0.0046202429
v 0.2091168 -0.041291669 0.0144048
v 0.20914111 -0.040608142 0.01417246
v 0.2091966 0.03425369 0.01181443
v 0.20915081 0.03636035 0.01255773
# </points>

# <edges count="167">
l 4 5
l 6 4
l 7 6
l 5 8
l 9 7
l 8 10
l 11 9
l 10 12
l 13 11
l 12 14
l 15 13
l 14 16
l 17 15
l 18 19
l 20 21
l 16 22
l 23 17
l 22 18
l 21 24
l 24 23
l 25 26
l 27 28
l 28 19
l 29 25
l 26 30
l 30 27
l 31 32
l 32 33
l 33 34
l 34 35
l 35 36
l 36 20
l 37 38
l 38 39
l 40 41
l 41 42
l 42 43
l 44 29
l 39 45
l 45 40
l 43 44
l 46 47
l 47 48
l 48 49
l 49 50
l 50 51
l 51 52
l 52 53
l 53 54
l 54 31
l 55 56
l 57 58
l 58 59
l 60 61
l 61 62
l 62 63
l 63 64
l 64 1
l 1 65
l 65 66
l 67 68
l 68 69
l 56 57
l 70 71
l 71 60
l 66 67
l 69 72
l 72 73
l 73 74
l 74 37
l 59 70
l 2 75
l 1 2
l 75 76
l 76 77
l 77 78
l 78 79
l 79 80
l 80 81
l 81 82
l 82 46
l 83 84
l 85 86
l 86 83
l 87 88
l 89 87
l 2 89
l 84 90
l 91 85
l 92 91
l 93 92
l 94 93
l 88 94
l 95 55
l 96 97
l 98 99
l 100 98
l 101 100
l 97 101
l 102 103
l 104 102
l 103 95
l 99 104
l 105 106
l 107 105
l 108 107
l 109 108
l 110 109
l 111 110
l 112 111
l 113 114
l 106 113
l 114 90
l 115 96
l 116 115
l 117 118
l 119 116
l 118 119
l 120 112
l 121 120
l 122 121
l 123 122
l 124 123
l 125 117
l 126 124
l 127 125
l 128 126
l 129 127
l 130 128
l 131 129
l 132 130
l 133 131
l 134 133
l 135 136
l 136 132
l 137 138
l 138 139
l 139 140
l 140 134
l 3 141
l 141 142
l 142 137
l 143 144
l 3 143
l 144 145
l 145 146
l 146 147
l 147 148
l 149 150
l 150 151
l 151 152
l 152 153
l 154 149
l 153 155
l 156 154
l 155 157
l 157 158
l 159 156
l 158 160
l 161 162
l 162 159
l 160 135
l 148 161
l 163 164
l 165 166
l 167 168
l 166 3
# </edges>
