v -0.2098446 -0.0010712449 0.040575389
v -0.02046228 -0.98297467 0.040575389
l 1 2
v -0.2099151 -3.1848951e-10 0.040575389
v -0.14424828 -0.99784161 0.040575389
l 3 4
v -0.20983259 0.001159727 0.040575389
v -0.2807973 -0.9963191 0.040575389
l 5 6
v -0.2096381 -0.0021419011 0.040575389
v 0.09414792 -0.95488219 0.040575389
l 7 8
v -0.2095914 0.002318708 0.040575389
v -0.41333177 -0.97670625 0.040575389
l 9 10
v -0.2092638 -0.0033157959 0.040575389
v 0.19864964 -0.9163364 0.040575389
l 11 12
v -0.2091639 0.0035682011 0.040575389
v -0.53287954 -0.94258622 0.040575389
l 13 14
v -0.2087089 -0.0045578219 0.040575389
v 0.2891657 -0.87180685 0.040575389
l 15 16
v -0.20858151 0.0048018801 0.040575389
v -0.63548373 -0.89949591 0.040575389
l 17 18
v -0.207949 -0.005881493 0.040575389
v 0.36593503 -0.82481807 0.040575389
l 19 20
v -0.20774581 0.006193555 0.040575389
v -0.7225572 -0.85110991 0.040575389
l 21 22
v -0.20695341 -0.0073022088 0.040575389
v 0.43016803 -0.77806564 0.040575389
l 23 24
v -0.2066586 0.007680628 0.040575389
v -0.79685085 -0.7995821 0.040575389
l 25 26
v -0.20198859 -0.01246755 0.040575389
v 0.56545737 -0.65358119 0.040575389
l 27 28
v -0.19943 0.01460496 0.040575389
v -0.96943232 -0.62343613 0.040575389
l 29 30
v -0.2056831 -0.0088389767 0.040575389
v 0.48347314 -0.73345176 0.040575389
l 31 32
v -0.2052836 0.0092803594 0.040575389
v -0.85711455 -0.74908394 0.040575389
l 33 34
v -0.20408639 -0.01051783 0.040575389
v 0.52840015 -0.69129934 0.040575389
l 35 36
v -0.2015837 0.01282036 0.040575389
v -0.94242934 -0.65885496 0.040575389
l 37 38
v -0.2035761 0.01101398 0.040575389
v -0.90529401 -0.70144092 0.040575389
l 39 40
v -0.1827071 -0.02567002 0.040575389
v -1.042249 0.4853952 0.040575389
l 41 42
v -0.19521619 -0.01777132 0.040575389
v -1.0029269 0.5718077 0.040575389
l 43 44
v -0.19737969 -0.016192099 0.040575389
v -0.98814029 0.59593344 0.040575389
l 45 46
v -0.1762365 -0.029304979 0.040575389
v -1.0480857 0.46046936 0.040575389
l 47 48
v -0.1878382 -0.02261918 0.040575389
v -1.0319327 0.51357532 0.040575389
l 49 50
v -0.19182751 -0.02008505 0.040575389
v -1.0176848 0.54379407 0.040575389
l 51 52
v -0.1762365 0.029304979 0.040575389
v -1.0499215 -0.45718706 0.040575389
l 53 54
v -0.1805118 0.02692437 0.040575389
v -1.0469412 -0.47237526 0.040575389
l 55 56
v -0.1844334 0.02466446 0.040575389
v -1.0396173 -0.49366021 0.040575389
l 57 58
v -0.1890991 0.02183659 0.040575389
v -1.0277408 -0.52284683 0.040575389
l 59 60
v -0.1930328 0.019281721 0.040575389
v -1.0116723 -0.55502601 0.040575389
l 61 62
v -0.19636279 0.016945601 0.040575389
v -0.99132965 -0.58970726 0.040575389
l 63 64
v -0.1388313 -0.044752989 0.040575389
v -1.1097563 0.19463097 0.040575389
l 65 66
v -0.1424966 -0.043849301 0.040575389
v -1.1029584 0.23456264 0.040575389
l 67 68
v -0.1541333 -0.039968129 0.040575389
v -1.0781542 0.34237386 0.040575389
l 69 70
v -0.1584029 -0.038201451 0.040575389
v -1.0696116 0.37374352 0.040575389
l 71 72
v -0.1628855 -0.036174931 0.040575389
v -1.0615689 0.40242294 0.040575389
l 73 74
v -0.1720798 -0.031552538 0.040575389
v -1.0517246 0.4440787 0.040575389
l 75 76
v -0.1461108 -0.042801641 0.040575389
v -1.0951929 0.2722272 0.040575389
l 77 78
v -0.1500432 -0.041496359 0.040575389
v -1.0867902 0.30851081 0.040575389
l 79 80
v -0.16764 -0.033854522 0.040575389
v -1.0554056 0.42644129 0.040575389
l 81 82
v -0.1388313 0.044752989 0.040575389
v -1.1105635 -0.19133305 0.040575389
l 83 84
v -0.1419062 0.04400593 0.040575389
v -1.1049417 -0.22536847 0.040575389
l 85 86
v -0.1449461 0.043155629 0.040575389
v -1.0979249 -0.2598813 0.040575389
l 87 88
v -0.1486499 0.04197786 0.040575389
v -1.0900159 -0.29540927 0.040575389
l 89 90
v -0.15252291 0.040589768 0.040575389
v -1.0817032 -0.32903714 0.040575389
l 91 92
v -0.1565991 0.038968261 0.040575389
v -1.0732104 -0.36081138 0.040575389
l 93 94
v -0.1609364 0.037076551 0.040575389
v -1.0647999 -0.39074431 0.040575389
l 95 96
v -0.1656554 0.034842931 0.040575389
v -1.0570218 -0.41844059 0.040575389
l 97 98
v -0.17087071 0.032190811 0.040575389
v -1.0515773 -0.44147131 0.040575389
l 99 100
v -0.087458894 -0.043932281 0.023571851
v -0.92219815 -0.12665116 0.56796874
l 101 102
v -0.089886509 -0.044203699 0.02531057
v -0.80289135 -0.15981502 0.71687265
l 103 104
v -0.090961777 -0.04437805 0.026353501
v -0.72082048 -0.17713337 0.79163386
l 105 106
v -0.093775377 -0.045274232 0.03129996
v -0.33639323 -0.22700267 0.98424873
l 107 108
v -0.094165839 -0.0455667 0.03283361
v -0.24914215 -0.23331515 1.0027475
l 109 110
v -0.094442859 -0.045902301 0.03456733
v -0.17470565 -0.23755183 1.0127434
l 111 112
v -0.094609432 -0.046300039 0.036597379
v -0.123332 -0.24000504 1.0172367
l 113 114
v -0.094667479 -0.046691511 0.038579222
v -0.098742318 -0.24119274 1.019473
l 115 116
v -0.094675772 -0.04708733 0.040575389
v -1.0944022 -0.07047743 0.040575389
l 117 118
v -0.1046862 -0.047321539 0.040575389
v -1.1046678 -0.05338061 0.040575389
l 119 120
v -0.1171678 -0.04725473 0.040575389
v -1.1160363 0.00030204816 0.040575389
l 121 122
v -0.1221308 -0.047018439 0.040575389
v -1.1189664 0.032472541 0.040575389
l 123 124
v -0.088755399 -0.044060759 0.0244174
v -0.86974292 -0.14275486 0.64111666
l 125 126
v -0.092636719 -0.04478126 0.0286415
v -0.53110384 -0.20689301 0.91264736
l 127 128
v -0.093267761 -0.045014571 0.029913761
v -0.43193069 -0.21825057 0.95473629
l 129 130
v -0.1113293 -0.047361791 0.040575389
v -1.1111612 -0.029027775 0.040575389
l 131 132
v -0.1265655 -0.0466648 0.040575389
v -1.1200682 0.067144155 0.040575389
l 133 134
v -0.1306259 -0.046199668 0.040575389
v -1.1192832 0.10398931 0.040575389
l 135 136
v -0.13439859 -0.045626551 0.040575389
v -1.1178763 0.13540277 0.040575389
l 137 138
v -0.13662221 -0.04521725 0.040575389
v -1.1152445 0.16044856 0.040575389
l 139 140
v -0.091872588 -0.044570021 0.027460139
v -0.62896474 -0.19304542 0.85781372
l 141 142
v -0.094675772 0.04708733 0.040575389
v -1.0943422 0.072913765 0.040575389
l 143 144
v -0.094675772 -0.04708733 0.040575389
v -0.094675772 0.95291267 0.040575389
l 145 146
v -0.1007833 0.047245119 0.040575389
v -1.100636 0.064407275 0.040575389
l 147 148
v -0.1068767 0.04734971 0.040575389
v -1.1068766 0.046804182 0.040575389
l 149 150
v -0.1130704 0.047346331 0.040575389
v -1.1127394 0.021619057 0.040575389
l 151 152
v -0.1184579 0.04720768 0.040575389
v -1.1169251 -0.0081392423 0.040575389
l 153 154
v -0.1233078 0.04693884 0.040575389
v -1.1193785 -0.04162318 0.040575389
l 155 156
v -0.1277609 0.046542909 0.040575389
v -1.1202453 -0.075828398 0.040575389
l 157 158
v -0.13137449 0.046097361 0.040575389
v -1.1188868 -0.11144473 0.040575389
l 159 160
v -0.1351224 0.04549944 0.040575389
v -1.1154649 -0.15180384 0.040575389
l 161 162
v -0.089886509 0.044203699 0.02531057
v 0.69110101 -0.054490406 -0.59138869
l 163 164
v -0.091872588 0.044570021 0.027460139
v 0.53798612 -0.088185297 -0.73782022
l 165 166
v -0.090961777 0.04437805 0.026353501
v 0.62204307 -0.071233275 -0.66520858
l 167 168
v -0.094609432 0.046300039 0.036597379
v -0.014346644 -0.14534949 -0.94157865
l 169 170
v -0.094667479 0.046691511 0.038579222
v -0.065944909 -0.14701349 -0.94206005
l 171 172
v -0.094675772 0.04708733 0.040575389
v -0.090600933 -0.1474139 -0.94031842
l 173 174
v -0.088755399 0.044060759 0.0244174
v 0.74598385 -0.038658123 -0.51997948
l 175 176
v -0.092636719 0.04478126 0.0286415
v 0.44445544 -0.10369414 -0.80171208
l 177 178
v -0.093267761 0.045014571 0.029913761
v 0.34519936 -0.11709717 -0.8540921
l 179 180
v -0.093775377 0.045274232 0.03129996
v 0.24488755 -0.12796176 -0.89352257
l 181 182
v -0.094165839 0.0455667 0.03283361
v 0.14845201 -0.13616174 -0.92011516
l 183 184
v -0.094442859 0.045902301 0.03456733
v 0.060533447 -0.14184615 -0.93534651
l 185 186
v -0.08581578 -0.043807231 0.022691069
v -0.96519863 -0.1107334 0.49407912
l 187 188
v -0.051374499 -0.043301269 0.01598263
v -1.0476066 -0.043554106 0.10270942
l 189 190
v -0.071960479 -0.043378141 0.018553261
v -1.0501053 -0.058476025 0.22592912
l 191 192
v -0.067608491 -0.043337099 0.0177976
v -1.0528238 -0.052628194 0.18886608
l 193 194
v -0.062637039 -0.043312769 0.017099479
v -1.0529091 -0.048159078 0.15615946
l 195 196
v -0.057055071 -0.043302711 0.016477151
v -1.0508959 -0.045093537 0.12727954
l 197 198
v -0.081615999 -0.043596592 0.02099992
v -1.0186729 -0.084723492 0.36774623
l 199 200
v -0.078982592 -0.043511339 0.020187611
v -1.0340974 -0.074431983 0.31480521
l 201 202
v -0.083970033 -0.043699909 0.021871001
v -0.99654256 -0.096761891 0.42732853
l 203 204
v -0.075736158 -0.043436419 0.01935374
v -1.0440539 -0.065782691 0.26807338
l 205 206
v -0.078982592 0.043511339 0.020187611
v -1.0340974 0.074431983 0.31480521
l 207 208
v -0.075736158 0.043436419 0.01935374
v -1.0440539 0.065782691 0.26807338
l 209 210
v -0.071960479 0.043378141 0.018553261
v -1.0501053 0.058476025 0.22592912
l 211 212
v -0.067608491 0.043337099 0.0177976
v -1.0528238 0.052628194 0.18886608
l 213 214
v -0.062637039 0.043312769 0.017099479
v -1.0529091 0.048159078 0.15615946
l 215 216
v -0.057055071 0.043302711 0.016477151
v -1.0508959 0.045093537 0.12727954
l 217 218
v -0.051374499 0.043301269 0.01598263
v -1.0476066 0.043554106 0.10270942
l 219 220
v -0.083970033 0.043699909 0.021871001
v -0.99654256 0.096761891 0.42732853
l 221 222
v -0.081615999 0.043596592 0.02099992
v -1.0186729 0.084723492 0.36774623
l 223 224
v -0.08581578 0.043807231 0.022691069
v -0.96519863 0.1107334 0.49407912
l 225 226
v -0.044459999 -0.043301269 0.01553444
v -1.0423659 -0.043301269 0.080217511
l 227 228
v -0.037545498 -0.043301269 0.01522794
v -1.0365645 -0.043301269 0.05951161
l 229 230
v -0.0080732265 -0.043301269 0.01488039
v -1.0080721 -0.043301269 0.016392173
l 231 232
v -0.029173899 -0.043301269 0.01500794
v -1.0288288 -0.043301269 0.041278177
l 233 234
v -0.018623561 -0.043301269 0.01489634
v -1.0185676 -0.043301269 0.025473644
l 235 236
v -0.044459999 0.043301269 0.01553444
v -1.0423659 0.043301269 0.080217511
l 237 238
v -0.037545498 0.043301269 0.01522794
v -1.0365645 0.043301269 0.05951161
l 239 240
v -0.029173899 0.043301269 0.01500794
v -1.0288288 0.043301269 0.041278177
l 241 242
v -0.018623561 0.043301269 0.01489634
v -1.0185676 0.043301269 0.025473644
l 243 244
v -0.0080732265 0.043301269 0.01488039
v -1.0080721 0.043301269 0.016392173
l 245 246
v 0.03522804 -0.043301269 0.01488039
v -0.96477196 -0.043301269 0.01488039
l 247 248
v 0.03522804 0.043301269 0.01488039
v -0.96477196 0.043301269 0.01488039
l 249 250
v 0.078529313 -0.043301269 0.01488039
v -0.92147069 -0.043301269 0.01488039
l 251 252
v 0.078529313 0.043301269 0.01488039
v -0.92147069 0.043301269 0.01488039
l 253 254
v 0.1218306 -0.043301269 0.01488039
v -0.8781694 -0.043301269 0.01488039
l 255 256
v 0.1218306 0.043301269 0.01488039
v -0.8781694 0.043301269 0.01488039
l 257 258
v 0.1651319 -0.043301269 0.01488039
v -0.8348681 -0.043301269 0.01488039
l 259 260
v 0.1651319 0.043301269 0.01488039
v -0.8348681 0.043301269 0.01488039
l 261 262
v 0.1858924 -0.043288909 0.01488039
v -0.81410742 -0.043884295 0.01488039
l 263 264
v 0.20131209 -0.0432024 0.01488039
v -0.79867217 -0.048812586 0.01488039
l 265 266
v 0.20131209 0.0432024 0.01488039
v -0.79867217 0.048812586 0.01488039
l 267 268
v 0.1858924 0.043288909 0.01488039
v -0.81410742 0.043884295 0.01488039
l 269 270
v 0.20866179 -0.042879108 0.01488039
v -0.78124922 -0.18456958 0.01488039
l 271 272
v 0.2079424 -0.042982079 0.01488039
v -0.78979938 -0.1101486 0.01488039
l 273 274
v 0.2067145 -0.04306474 0.01488039
v -0.79266927 -0.078165721 0.01488039
l 275 276
v 0.20446581 -0.043143719 0.01488039
v -0.79536113 -0.061747392 0.01488039
l 277 278
v 0.2090084 -0.042708039 0.01488039
v -0.53920664 -0.70616434 0.01488039
l 279 280
v 0.2089321 -0.042775691 0.01488039
v -0.6809846 -0.49889877 0.01488039
l 281 282
v 0.20882639 -0.042829871 0.01488039
v -0.74922756 -0.32941776 0.01488039
l 283 284
v 0.2090677 -0.042639241 0.01488039
v 0.66492061 0.84741588 0.01488039
l 285 286
v 0.2090084 -0.042708039 0.01488039
v 0.86193179 0.71471591 0.01488039
l 287 288
v 0.20912629 -0.042524841 0.01488039
v 0.41978922 0.93503392 0.01488039
l 289 290
v 0.2092306 -0.04204081 0.01488039
v 0.2837922 0.9551756 0.01488039
l 291 292
v 0.20936359 -0.040262111 0.01488039
v 0.2338653 0.95943768 0.01488039
l 293 294
v 0.2094878 -0.03519455 0.01488039
v 0.21508079 0.96478981 0.01488039
l 295 296
v 0.20912629 0.042524841 0.01488039
v -0.24672662 0.93257997 0.01488039
l 297 298
v 0.2090677 0.042639241 0.01488039
v -0.44385569 0.80006319 0.01488039
l 299 300
v 0.2090084 0.042708039 0.01488039
v -0.53920664 0.70616434 0.01488039
l 301 302
v 0.2089321 0.042775691 0.01488039
v -0.6809846 0.49889877 0.01488039
l 303 304
v 0.2092306 0.04204081 0.01488039
v -0.0014323292 1.0195996 0.01488039
l 305 306
v 0.20882639 0.042829871 0.01488039
v -0.74922756 0.32941776 0.01488039
l 307 308
v 0.20936359 0.040262111 0.01488039
v 0.134802 1.0374785 0.01488039
l 309 310
v 0.20866179 0.042879108 0.01488039
v -0.78124922 0.18456958 0.01488039
l 311 312
v 0.2079424 0.042982079 0.01488039
v -0.78979938 0.1101486 0.01488039
l 313 314
v 0.2094878 0.03519455 0.01488039
v 0.18498609 1.0348943 0.01488039
l 315 316
v 0.2067145 0.04306474 0.01488039
v -0.79266927 0.078165721 0.01488039
l 317 318
v 0.2095837 -3.1849159e-10 0.01488039
v 0.20898964 0.99999982 0.01488039
l 319 320
v 0.2095717 0.02019237 0.01488039
v 0.20397871 1.0201767 0.01488039
l 321 322
v 0.20446581 0.043143719 0.01488039
v -0.79536113 0.061747392 0.01488039
l 323 324
v 0.2095717 -0.02019237 0.01488039
v 0.21016576 0.97980745 0.01488039
l 325 326
v 0.2089289 0.0080213202 -0.007437448
v 0.20502184 0.56858737 0.82066305
l 327 328
v 0.2091168 -0.041291669 0.0144048
v 0.24276249 0.90497013 -0.30724185
l 329 330
v 0.2091966 0.03425369 0.01181443
v 0.18870296 0.97707786 0.3444743
l 331 332
v 0.20914111 -0.040608142 0.01417246
v 0.14936162 -0.98651309 0.33306154
l 333 334
