solid Onshape
  facet normal 0 0 -1
    outer loop
      vertex 0.7 -0.475367 -0.0125
      vertex -0.4 -0.075 -0.0125
      vertex 0.7 0.475367 -0.0125
    endloop
  endfacet
  facet normal 0 0 -1
    outer loop
      vertex -0.4 -0.075 -0.0125
      vertex -0.4 0.075 -0.0125
      vertex 0.7 0.475367 -0.0125
    endloop
  endfacet
  facet normal 0 0 1
    outer loop
      vertex -0.4 -0.075 0.0125
      vertex 0.7 -0.475367 0.0125
      vertex -0.4 0.075 0.0125
    endloop
  endfacet
  facet normal 0 0 1
    outer loop
      vertex 0.7 -0.475367 0.0125
      vertex 0.7 0.475367 0.0125
      vertex -0.4 0.075 0.0125
    endloop
  endfacet
  facet normal 1 0 0
    outer loop
      vertex 0.7 0.475367 0.0125
      vertex 0.7 -0.475367 0.0125
      vertex 0.7 0.475367 -0.0125
    endloop
  endfacet
  facet normal 1 0 0
    outer loop
      vertex 0.7 -0.475367 0.0125
      vertex 0.7 -0.475367 -0.0125
      vertex 0.7 0.475367 -0.0125
    endloop
  endfacet
  facet normal -0.34202 -0.939693 0
    outer loop
      vertex 0.7 -0.475367 0.0125
      vertex -0.4 -0.075 0.0125
      vertex 0.7 -0.475367 -0.0125
    endloop
  endfacet
  facet normal -0.34202 -0.939693 0
    outer loop
      vertex -0.4 -0.075 0.0125
      vertex -0.4 -0.075 -0.0125
      vertex 0.7 -0.475367 -0.0125
    endloop
  endfacet
  facet normal -0.34202 0.939693 0
    outer loop
      vertex -0.4 0.075 0.0125
      vertex 0.7 0.475367 0.0125
      vertex -0.4 0.075 -0.0125
    endloop
  endfacet
  facet normal -0.34202 0.939693 0
    outer loop
      vertex 0.7 0.475367 0.0125
      vertex 0.7 0.475367 -0.0125
      vertex -0.4 0.075 -0.0125
    endloop
  endfacet
  facet normal -1 0 0
    outer loop
      vertex -0.4 -0.075 0.0125
      vertex -0.4 0.075 0.0125
      vertex -0.4 -0.075 -0.0125
    endloop
  endfacet
  facet normal -1 0 0
    outer loop
      vertex -0.4 0.075 0.0125
      vertex -0.4 0.075 -0.0125
      vertex -0.4 -0.075 -0.0125
    endloop
  endfacet
endsolid Onshape
